EESchema Schematic File Version 4
LIBS:umrepair-cache
EELAYER 26 0
EELAYER END
$Descr A4 11693 8268
encoding utf-8
Sheet 1 1
Title ""
Date ""
Rev ""
Comp ""
Comment1 ""
Comment2 ""
Comment3 ""
Comment4 ""
$EndDescr
$Comp
L Connector:AVR-ISP-6 J1
U 1 1 5B7EFCAE
P 10000 2550
F 0 "J1" H 9720 2646 50  0000 R CNN
F 1 "ISP" H 9720 2555 50  0000 R CNN
F 2 "Connector_IDC:IDC-Header_2x03_P2.54mm_Vertical" V 9750 2600 50  0001 C CNN
F 3 " ~" H 8725 2000 50  0001 C CNN
	1    10000 2550
	1    0    0    -1  
$EndComp
$Comp
L Connector:Conn_01x02_Female J2
U 1 1 5B7EFDF9
P 5550 1750
F 0 "J2" H 5577 1726 50  0000 L CNN
F 1 "Conn_01x02_Female" H 4000 1700 50  0000 L CNN
F 2 "Connector_PinHeader_2.54mm:PinHeader_1x02_P2.54mm_Vertical" H 5550 1750 50  0001 C CNN
F 3 "~" H 5550 1750 50  0001 C CNN
	1    5550 1750
	1    0    0    -1  
$EndComp
$Comp
L power:+24V #PWR0101
U 1 1 5B7EFE9E
P 5150 1550
F 0 "#PWR0101" H 5150 1400 50  0001 C CNN
F 1 "+24V" H 5165 1723 50  0000 C CNN
F 2 "" H 5150 1550 50  0001 C CNN
F 3 "" H 5150 1550 50  0001 C CNN
	1    5150 1550
	1    0    0    -1  
$EndComp
Wire Wire Line
	5350 1750 5150 1750
Wire Wire Line
	5150 1750 5150 1650
$Comp
L Regulator_Switching:LM2596T-5 U1
U 1 1 5B7F0020
P 7050 1850
F 0 "U1" H 7050 2217 50  0000 C CNN
F 1 "LM2596T" H 7050 2126 50  0000 C CNN
F 2 "Package_TO_SOT_THT:TO-220-5_P3.4x3.8mm_StaggerEven_Lead7.13mm_TabDown" H 7100 1600 50  0001 L CIN
F 3 "http://www.ti.com/lit/ds/symlink/lm2596.pdf" H 7050 1850 50  0001 C CNN
	1    7050 1850
	1    0    0    -1  
$EndComp
Wire Wire Line
	6550 1750 6550 1650
Wire Wire Line
	6550 1650 6000 1650
Connection ~ 5150 1650
Wire Wire Line
	5150 1650 5150 1550
$Comp
L power:GND #PWR0103
U 1 1 5B7F014A
P 7050 2300
F 0 "#PWR0103" H 7050 2050 50  0001 C CNN
F 1 "GND" H 7055 2127 50  0000 C CNN
F 2 "" H 7050 2300 50  0001 C CNN
F 3 "" H 7050 2300 50  0001 C CNN
	1    7050 2300
	1    0    0    -1  
$EndComp
Wire Wire Line
	7050 2300 7050 2200
Wire Wire Line
	6550 1950 6450 1950
Wire Wire Line
	6450 1950 6450 2200
Wire Wire Line
	6450 2200 7050 2200
Connection ~ 7050 2200
Wire Wire Line
	7050 2200 7050 2150
$Comp
L Device:C C2
U 1 1 5B7F035C
P 6000 1900
F 0 "C2" H 6115 1946 50  0000 L CNN
F 1 "680uF" H 6115 1855 50  0000 L CNN
F 2 "Capacitor_THT:CP_Radial_D8.0mm_P3.50mm" H 6038 1750 50  0001 C CNN
F 3 "~" H 6000 1900 50  0001 C CNN
	1    6000 1900
	1    0    0    -1  
$EndComp
$Comp
L Device:C C1
U 1 1 5B7F0420
P 8900 2250
F 0 "C1" H 9015 2296 50  0000 L CNN
F 1 "220uF" H 9015 2205 50  0000 L CNN
F 2 "Capacitor_THT:CP_Radial_D8.0mm_P3.50mm" H 8938 2100 50  0001 C CNN
F 3 "~" H 8900 2250 50  0001 C CNN
	1    8900 2250
	1    0    0    -1  
$EndComp
$Comp
L Device:D_Schottky D1
U 1 1 5B7F0529
P 7850 2250
F 0 "D1" V 7804 2329 50  0000 L CNN
F 1 "D_Schottky" V 7895 2329 50  0000 L CNN
F 2 "Diode_SMD:D_SOD-123F" H 7850 2250 50  0001 C CNN
F 3 "~" H 7850 2250 50  0001 C CNN
	1    7850 2250
	0    1    1    0   
$EndComp
$Comp
L Device:L L1
U 1 1 5B7F07D6
P 8450 1950
F 0 "L1" V 8640 1950 50  0000 C CNN
F 1 "47uH" V 8549 1950 50  0000 C CNN
F 2 "Inductor_THT:L_Axial_L7.0mm_D3.3mm_P12.70mm_Horizontal_Fastron_MICC" H 8450 1950 50  0001 C CNN
F 3 "~" H 8450 1950 50  0001 C CNN
	1    8450 1950
	0    -1   -1   0   
$EndComp
$Comp
L power:GND #PWR0104
U 1 1 5B7F08EF
P 6000 2150
F 0 "#PWR0104" H 6000 1900 50  0001 C CNN
F 1 "GND" H 6005 1977 50  0000 C CNN
F 2 "" H 6000 2150 50  0001 C CNN
F 3 "" H 6000 2150 50  0001 C CNN
	1    6000 2150
	1    0    0    -1  
$EndComp
Wire Wire Line
	6000 1750 6000 1650
Connection ~ 6000 1650
Wire Wire Line
	6000 1650 5150 1650
Wire Wire Line
	6000 2050 6000 2150
$Comp
L power:GND #PWR0105
U 1 1 5B7F0C88
P 7850 2600
F 0 "#PWR0105" H 7850 2350 50  0001 C CNN
F 1 "GND" H 7855 2427 50  0000 C CNN
F 2 "" H 7850 2600 50  0001 C CNN
F 3 "" H 7850 2600 50  0001 C CNN
	1    7850 2600
	1    0    0    -1  
$EndComp
$Comp
L power:GND #PWR0106
U 1 1 5B7F0EBA
P 8900 2650
F 0 "#PWR0106" H 8900 2400 50  0001 C CNN
F 1 "GND" H 8905 2477 50  0000 C CNN
F 2 "" H 8900 2650 50  0001 C CNN
F 3 "" H 8900 2650 50  0001 C CNN
	1    8900 2650
	1    0    0    -1  
$EndComp
Wire Wire Line
	7550 1950 7850 1950
Wire Wire Line
	7850 2100 7850 1950
Connection ~ 7850 1950
Wire Wire Line
	7850 1950 8300 1950
Wire Wire Line
	7850 2600 7850 2400
Wire Wire Line
	8900 2650 8900 2400
Wire Wire Line
	8600 1950 8900 1950
Wire Wire Line
	8900 2100 8900 1950
Connection ~ 8900 1950
Wire Wire Line
	7550 1750 8900 1750
Wire Wire Line
	8900 1750 8900 1950
$Comp
L power:GND #PWR0107
U 1 1 5B7F1939
P 9900 3250
F 0 "#PWR0107" H 9900 3000 50  0001 C CNN
F 1 "GND" H 9905 3077 50  0000 C CNN
F 2 "" H 9900 3250 50  0001 C CNN
F 3 "" H 9900 3250 50  0001 C CNN
	1    9900 3250
	1    0    0    -1  
$EndComp
Wire Wire Line
	9900 3250 9900 2950
Wire Wire Line
	9900 2050 9900 1950
Wire Wire Line
	8900 1950 9900 1950
$Comp
L Connector:Conn_01x02_Male J3
U 1 1 5B7FD7DC
P 5550 2100
F 0 "J3" H 5656 2278 50  0000 C CNN
F 1 "Conn_01x02_Male" H 6750 2050 50  0000 C CNN
F 2 "Connector_PinHeader_2.54mm:PinHeader_1x02_P2.54mm_Horizontal" H 5550 2100 50  0001 C CNN
F 3 "~" H 5550 2100 50  0001 C CNN
	1    5550 2100
	-1   0    0    1   
$EndComp
Wire Wire Line
	5250 1850 5350 1850
Wire Wire Line
	5350 2100 5250 2100
Wire Wire Line
	5250 2100 5250 1850
Wire Wire Line
	5350 2000 5150 2000
Wire Wire Line
	5150 2000 5150 1750
Connection ~ 5150 1750
$EndSCHEMATC
